('C:\\Users\\poladmin\\PycharmProjects\\pims\\build\\main\\main.pkg',
 {'BINARY': 1,
  'DATA': 1,
  'EXECUTABLE': 1,
  'EXTENSION': 1,
  'PYMODULE': 1,
  'PYSOURCE': 1,
  'PYZ': 0,
  'SPLASH': 1},
 [('PYZ-00.pyz',
   'C:\\Users\\poladmin\\PycharmProjects\\pims\\build\\main\\PYZ-00.pyz',
   'PYZ'),
  ('struct',
   'c:\\users\\poladmin\\appdata\\local\\programs\\python\\python39\\lib\\struct.pyo',
   'PYMODULE'),
  ('pyimod01_os_path',
   'c:\\users\\poladmin\\appdata\\local\\programs\\python\\python39\\lib\\site-packages\\PyInstaller\\loader\\pyimod01_os_path.pyc',
   'PYMODULE'),
  ('pyimod02_archive',
   'c:\\users\\poladmin\\appdata\\local\\programs\\python\\python39\\lib\\site-packages\\PyInstaller\\loader\\pyimod02_archive.pyc',
   'PYMODULE'),
  ('pyimod03_importers',
   'c:\\users\\poladmin\\appdata\\local\\programs\\python\\python39\\lib\\site-packages\\PyInstaller\\loader\\pyimod03_importers.pyc',
   'PYMODULE'),
  ('pyimod04_ctypes',
   'c:\\users\\poladmin\\appdata\\local\\programs\\python\\python39\\lib\\site-packages\\PyInstaller\\loader\\pyimod04_ctypes.pyc',
   'PYMODULE'),
  ('pyiboot01_bootstrap',
   'c:\\users\\poladmin\\appdata\\local\\programs\\python\\python39\\lib\\site-packages\\PyInstaller\\loader\\pyiboot01_bootstrap.py',
   'PYSOURCE'),
  ('pyi_rth_pkgutil',
   'C:\\Users\\poladmin\\AppData\\Local\\Programs\\Python\\Python39\\Lib\\site-packages\\PyInstaller\\hooks\\rthooks\\pyi_rth_pkgutil.py',
   'PYSOURCE'),
  ('pyi_rth_multiprocessing',
   'C:\\Users\\poladmin\\AppData\\Local\\Programs\\Python\\Python39\\Lib\\site-packages\\PyInstaller\\hooks\\rthooks\\pyi_rth_multiprocessing.py',
   'PYSOURCE'),
  ('pyi_rth_inspect',
   'C:\\Users\\poladmin\\AppData\\Local\\Programs\\Python\\Python39\\Lib\\site-packages\\PyInstaller\\hooks\\rthooks\\pyi_rth_inspect.py',
   'PYSOURCE'),
  ('main', 'C:\\Users\\poladmin\\PycharmProjects\\pims\\main.py', 'PYSOURCE'),
  ('VCRUNTIME140.dll',
   'c:\\users\\poladmin\\appdata\\local\\programs\\python\\python39\\VCRUNTIME140.dll',
   'BINARY'),
  ('api-ms-win-crt-heap-l1-1-0.dll',
   'C:\\Kotrak\\Mtools\\MTools\\api-ms-win-crt-heap-l1-1-0.dll',
   'BINARY'),
  ('python39.dll',
   'c:\\users\\poladmin\\appdata\\local\\programs\\python\\python39\\python39.dll',
   'BINARY'),
  ('api-ms-win-crt-runtime-l1-1-0.dll',
   'C:\\Kotrak\\Mtools\\MTools\\api-ms-win-crt-runtime-l1-1-0.dll',
   'BINARY'),
  ('api-ms-win-crt-locale-l1-1-0.dll',
   'C:\\Kotrak\\Mtools\\MTools\\api-ms-win-crt-locale-l1-1-0.dll',
   'BINARY'),
  ('api-ms-win-crt-stdio-l1-1-0.dll',
   'C:\\Kotrak\\Mtools\\MTools\\api-ms-win-crt-stdio-l1-1-0.dll',
   'BINARY'),
  ('api-ms-win-crt-math-l1-1-0.dll',
   'C:\\Kotrak\\Mtools\\MTools\\api-ms-win-crt-math-l1-1-0.dll',
   'BINARY'),
  ('api-ms-win-crt-convert-l1-1-0.dll',
   'C:\\Kotrak\\Mtools\\MTools\\api-ms-win-crt-convert-l1-1-0.dll',
   'BINARY'),
  ('api-ms-win-crt-string-l1-1-0.dll',
   'C:\\Kotrak\\Mtools\\MTools\\api-ms-win-crt-string-l1-1-0.dll',
   'BINARY'),
  ('ucrtbase.dll', 'C:\\Kotrak\\Mtools\\MTools\\ucrtbase.dll', 'BINARY'),
  ('api-ms-win-crt-environment-l1-1-0.dll',
   'C:\\Kotrak\\Mtools\\MTools\\api-ms-win-crt-environment-l1-1-0.dll',
   'BINARY'),
  ('api-ms-win-crt-time-l1-1-0.dll',
   'C:\\Kotrak\\Mtools\\MTools\\api-ms-win-crt-time-l1-1-0.dll',
   'BINARY'),
  ('api-ms-win-crt-filesystem-l1-1-0.dll',
   'C:\\Kotrak\\Mtools\\MTools\\api-ms-win-crt-filesystem-l1-1-0.dll',
   'BINARY'),
  ('api-ms-win-crt-conio-l1-1-0.dll',
   'C:\\Kotrak\\Mtools\\MTools\\api-ms-win-crt-conio-l1-1-0.dll',
   'BINARY'),
  ('api-ms-win-crt-process-l1-1-0.dll',
   'C:\\Kotrak\\Mtools\\MTools\\api-ms-win-crt-process-l1-1-0.dll',
   'BINARY'),
  ('api-ms-win-core-libraryloader-l1-1-0.dll',
   'C:\\Kotrak\\Mtools\\MTools\\api-ms-win-core-libraryloader-l1-1-0.dll',
   'BINARY'),
  ('api-ms-win-core-timezone-l1-1-0.dll',
   'C:\\Kotrak\\Mtools\\MTools\\api-ms-win-core-timezone-l1-1-0.dll',
   'BINARY'),
  ('api-ms-win-core-processthreads-l1-1-1.dll',
   'C:\\Kotrak\\Mtools\\MTools\\api-ms-win-core-processthreads-l1-1-1.dll',
   'BINARY'),
  ('api-ms-win-core-processenvironment-l1-1-0.dll',
   'C:\\Kotrak\\Mtools\\MTools\\api-ms-win-core-processenvironment-l1-1-0.dll',
   'BINARY'),
  ('api-ms-win-core-processthreads-l1-1-0.dll',
   'C:\\Kotrak\\Mtools\\MTools\\api-ms-win-core-processthreads-l1-1-0.dll',
   'BINARY'),
  ('api-ms-win-core-profile-l1-1-0.dll',
   'C:\\Kotrak\\Mtools\\MTools\\api-ms-win-core-profile-l1-1-0.dll',
   'BINARY'),
  ('api-ms-win-core-heap-l1-1-0.dll',
   'C:\\Kotrak\\Mtools\\MTools\\api-ms-win-core-heap-l1-1-0.dll',
   'BINARY'),
  ('api-ms-win-core-sysinfo-l1-1-0.dll',
   'C:\\Kotrak\\Mtools\\MTools\\api-ms-win-core-sysinfo-l1-1-0.dll',
   'BINARY'),
  ('api-ms-win-core-datetime-l1-1-0.dll',
   'C:\\Kotrak\\Mtools\\MTools\\api-ms-win-core-datetime-l1-1-0.dll',
   'BINARY'),
  ('api-ms-win-core-memory-l1-1-0.dll',
   'C:\\Kotrak\\Mtools\\MTools\\api-ms-win-core-memory-l1-1-0.dll',
   'BINARY'),
  ('api-ms-win-core-handle-l1-1-0.dll',
   'C:\\Kotrak\\Mtools\\MTools\\api-ms-win-core-handle-l1-1-0.dll',
   'BINARY'),
  ('api-ms-win-core-util-l1-1-0.dll',
   'C:\\Kotrak\\Mtools\\MTools\\api-ms-win-core-util-l1-1-0.dll',
   'BINARY'),
  ('api-ms-win-core-rtlsupport-l1-1-0.dll',
   'C:\\Kotrak\\Mtools\\MTools\\api-ms-win-core-rtlsupport-l1-1-0.dll',
   'BINARY'),
  ('api-ms-win-core-string-l1-1-0.dll',
   'C:\\Kotrak\\Mtools\\MTools\\api-ms-win-core-string-l1-1-0.dll',
   'BINARY'),
  ('api-ms-win-core-file-l1-1-0.dll',
   'C:\\Kotrak\\Mtools\\MTools\\api-ms-win-core-file-l1-1-0.dll',
   'BINARY'),
  ('api-ms-win-core-synch-l1-1-0.dll',
   'C:\\Kotrak\\Mtools\\MTools\\api-ms-win-core-synch-l1-1-0.dll',
   'BINARY'),
  ('api-ms-win-core-file-l2-1-0.dll',
   'C:\\Kotrak\\Mtools\\MTools\\api-ms-win-core-file-l2-1-0.dll',
   'BINARY'),
  ('api-ms-win-core-console-l1-1-0.dll',
   'C:\\Kotrak\\Mtools\\MTools\\api-ms-win-core-console-l1-1-0.dll',
   'BINARY'),
  ('api-ms-win-core-namedpipe-l1-1-0.dll',
   'C:\\Kotrak\\Mtools\\MTools\\api-ms-win-core-namedpipe-l1-1-0.dll',
   'BINARY'),
  ('api-ms-win-core-file-l1-2-0.dll',
   'C:\\Kotrak\\Mtools\\MTools\\api-ms-win-core-file-l1-2-0.dll',
   'BINARY'),
  ('api-ms-win-core-interlocked-l1-1-0.dll',
   'C:\\Kotrak\\Mtools\\MTools\\api-ms-win-core-interlocked-l1-1-0.dll',
   'BINARY'),
  ('api-ms-win-core-debug-l1-1-0.dll',
   'C:\\Kotrak\\Mtools\\MTools\\api-ms-win-core-debug-l1-1-0.dll',
   'BINARY'),
  ('api-ms-win-core-synch-l1-2-0.dll',
   'C:\\Kotrak\\Mtools\\MTools\\api-ms-win-core-synch-l1-2-0.dll',
   'BINARY'),
  ('api-ms-win-core-localization-l1-2-0.dll',
   'C:\\Kotrak\\Mtools\\MTools\\api-ms-win-core-localization-l1-2-0.dll',
   'BINARY'),
  ('api-ms-win-core-errorhandling-l1-1-0.dll',
   'C:\\Kotrak\\Mtools\\MTools\\api-ms-win-core-errorhandling-l1-1-0.dll',
   'BINARY'),
  ('select',
   'c:\\users\\poladmin\\appdata\\local\\programs\\python\\python39\\DLLs\\select.pyd',
   'EXTENSION'),
  ('unicodedata',
   'c:\\users\\poladmin\\appdata\\local\\programs\\python\\python39\\DLLs\\unicodedata.pyd',
   'EXTENSION'),
  ('_socket',
   'c:\\users\\poladmin\\appdata\\local\\programs\\python\\python39\\DLLs\\_socket.pyd',
   'EXTENSION'),
  ('_decimal',
   'c:\\users\\poladmin\\appdata\\local\\programs\\python\\python39\\DLLs\\_decimal.pyd',
   'EXTENSION'),
  ('_overlapped',
   'c:\\users\\poladmin\\appdata\\local\\programs\\python\\python39\\DLLs\\_overlapped.pyd',
   'EXTENSION'),
  ('_ssl',
   'c:\\users\\poladmin\\appdata\\local\\programs\\python\\python39\\DLLs\\_ssl.pyd',
   'EXTENSION'),
  ('_asyncio',
   'c:\\users\\poladmin\\appdata\\local\\programs\\python\\python39\\DLLs\\_asyncio.pyd',
   'EXTENSION'),
  ('_queue',
   'c:\\users\\poladmin\\appdata\\local\\programs\\python\\python39\\DLLs\\_queue.pyd',
   'EXTENSION'),
  ('_ctypes',
   'c:\\users\\poladmin\\appdata\\local\\programs\\python\\python39\\DLLs\\_ctypes.pyd',
   'EXTENSION'),
  ('_multiprocessing',
   'c:\\users\\poladmin\\appdata\\local\\programs\\python\\python39\\DLLs\\_multiprocessing.pyd',
   'EXTENSION'),
  ('pyexpat',
   'c:\\users\\poladmin\\appdata\\local\\programs\\python\\python39\\DLLs\\pyexpat.pyd',
   'EXTENSION'),
  ('_hashlib',
   'c:\\users\\poladmin\\appdata\\local\\programs\\python\\python39\\DLLs\\_hashlib.pyd',
   'EXTENSION'),
  ('_lzma',
   'c:\\users\\poladmin\\appdata\\local\\programs\\python\\python39\\DLLs\\_lzma.pyd',
   'EXTENSION'),
  ('_bz2',
   'c:\\users\\poladmin\\appdata\\local\\programs\\python\\python39\\DLLs\\_bz2.pyd',
   'EXTENSION'),
  ('libssl-1_1.dll',
   'c:\\users\\poladmin\\appdata\\local\\programs\\python\\python39\\DLLs\\libssl-1_1.dll',
   'BINARY'),
  ('libcrypto-1_1.dll',
   'c:\\users\\poladmin\\appdata\\local\\programs\\python\\python39\\DLLs\\libcrypto-1_1.dll',
   'BINARY'),
  ('libffi-7.dll',
   'c:\\users\\poladmin\\appdata\\local\\programs\\python\\python39\\DLLs\\libffi-7.dll',
   'BINARY'),
  ('api-ms-win-crt-utility-l1-1-0.dll',
   'C:\\Kotrak\\Mtools\\MTools\\api-ms-win-crt-utility-l1-1-0.dll',
   'BINARY'),
  ('base_library.zip',
   'C:\\Users\\poladmin\\PycharmProjects\\pims\\build\\main\\base_library.zip',
   'DATA')],
 False,
 False,
 False,
 [],
 None,
 None,
 None)
