2021-11-22 21:26:10.3888|INFO|PIMSPE.MainWindow|Dodaje karte: 
KOD: MIL_CH_2_F9_ELISA1
 KATEGORIA: Chair
 KOD DOSTAWCY:Domartstyl
 CENA:101
 MARKA:Milo Casa
 WAGA:11
 ATRCOLOR=Gold Metal ATRREF=F9 ATRHEIG=39
 ILOSC:0.319052
 EAN:5903614224235
